<svg xmlns="http://www.w3.org/2000/svg" width="128" height="42" viewBox="0 0 128 42">
  <defs>
    <linearGradient id="gray" x1="0" y1="0" x2="0" y2="1">
      <stop offset="0" stop-color="#cbb" /><stop offset="1" stop-color="#876" />
    </linearGradient>
    <linearGradient id="dark" x1="0" y1="0" x2="0" y2="1">
      <stop offset="0" stop-color="#b40" /><stop offset="1" stop-color="#910" />
    </linearGradient>
    <linearGradient id="light" x1="0" y1="0" x2="0" y2="1">
      <stop offset="0" stop-color="#f60" /><stop offset="1" stop-color="#d50" />
    </linearGradient>
    <filter id="blur" x="-0.06" y="-1" width="1.125" height="3">
      <feGaussianBlur in="SourceGraphic" stdDeviation="1.25" />
    </filter>
  </defs>
  <rect fill="#000" fill-opacity="0.25" filter="url(#blur)" width="46" height="3" x="3" y="35" />
  <polygon fill="url(#gray)" points="18,37 52,37 52,9 18,9" />
  <polygon fill="url(#dark)" points="0,37 52,37 52,9" />
  <polygon fill="url(#light)" points="0,37 40,37 26,5 2,5" />
  <path fill-opacity="0.25" d="m 45.715,17 -3.57,2 9.86,0 0,-2 z m -5.84,6 0.875,2 11.25,0 0,-2 z m 2.625,6 0.875,2 8.625,0 0,-2 z" />
  <path fill-opacity="0.25" d="m 1.625,11 -0.125,2 22,0 -0.875,-2 z m -0.375,6 -0.125,2 25,0 -0.875,-2 z m -0.375,6 -0.125,2 28,0 -0.875,-2 z m -0.375,6 -0.125,2 31,0 -0.875,-2 z" />
  <path fill="url(#light)" d="M 65.388225,9 61.398,19.5 l 2.356875,0 0.854025,-2.340825 3.902325,0 0.8247,2.340825 2.4141,0 L 67.7598,9 Z m 8.384775,0 0,10.5 2.2851,0 0,-3.7749 2.359875,0 c 2.10885,0 3.73095,-1.062825 3.73095,-3.348675 C 82.148925,10.061175 80.5719,9 78.300825,9 Z m 10.125,0 0,10.5 8.352523,0 0,-1.93215 -6.067423,0 0,-2.58105 5.507846,0 0,-1.8135 -5.507846,0 0,-2.061 5.9649,0 0,-2.1123 z m 10.5,0 0,10.5 2.301223,0 0,-4.527825 5.042027,0 0,4.527825 2.30123,0 0,-10.5 -2.30123,0 0,3.952125 -5.042027,0 0,-3.952125 z m 15.61522,0 -3.99022,10.5 2.35688,0 0.85402,-2.340825 3.90232,0 0.8247,2.340825 2.4141,0 L 112.3848,9 Z m -33.95512,1.8882 2.065425,0 c 1.0176,0 1.784175,0.39825 1.784175,1.51905 0,1.164975 -0.7665,1.502925 -1.7988,1.502925 l -2.0508,0 z m -9.490725,0.688425 1.384275,3.9024 -2.783175,0 z m 44.625005,0 1.38427,3.9024 -2.78317,0 z M 66.666975,22.5 C 63.75705,22.499775 61.398,24.85035 61.398,27.75 c 0,2.89965 2.35905,5.250225 5.268975,5.25 1.74345,-0.0075 3.372825,-0.863925 4.3521,-2.3013 l -1.95705,-0.99165 c -0.5616,0.8382 -1.4499,1.333725 -2.39505,1.3359 -1.64955,0 -2.9871,-1.473825 -2.9868,-3.29295 -3e-4,-1.819125 1.33725,-3.293775 2.9868,-3.29295 0.94515,0 1.83345,0.4977 2.39505,1.3359 l 1.9614,-0.99465 c -0.9807,-1.437525 -2.61195,-2.298075 -4.35645,-2.2983 z m 6.356025,0 0,10.5 2.2998,0 0,-8.5386 5.04195,0 0,8.5386 2.3013,0 0,-10.5 z m 12,0 0,10.5 2.2851,0 0,-3.7749 2.359875,0 c 2.108848,0 3.730948,-1.0629 3.730948,-3.348675 0,-2.315325 -1.5771,-3.376425 -3.848098,-3.376425 z m 15.08932,0 c -2.948774,-2.25e-4 -5.33932,2.35035 -5.33932,5.25 0,2.89965 2.390546,5.250225 5.33932,5.25 2.94818,0 5.3379,-2.35095 5.3379,-5.25 0,-2.89905 -2.38972,-5.2494 -5.3379,-5.25 z m 12.30466,0 c -2.90993,-2.25e-4 -5.26898,2.35035 -5.26898,5.25 0,2.89965 2.35905,5.250225 5.26898,5.25 1.74344,-0.0075 3.37282,-0.863925 4.3521,-2.3013 l -1.95706,-0.990225 c -0.56212,0.83715 -1.45042,1.33155 -2.39504,1.33305 -1.64903,0 -2.98636,-1.473 -2.9868,-3.291525 3.7e-4,-1.818525 1.33777,-3.292275 2.9868,-3.291525 0.94462,0 1.83292,0.4959 2.39504,1.33305 l 1.9614,-0.993225 c -0.9807,-1.437525 -2.61194,-2.298075 -4.35644,-2.2983 z m 9.22124,0 -3.99022,10.5 2.35688,0 0.85402,-2.340825 3.90232,0 0.8247,2.340825 2.4141,0 -3.99022,-10.5 z m -34.33012,1.8882 2.065425,0 c 1.0176,0 1.784175,0.398325 1.784175,1.51905 0,1.164975 -0.7665,1.502925 -1.7988,1.502925 l -2.0508,0 z m 12.80422,0.069 c 1.67093,3e-4 3.0252,1.474575 3.0249,3.29295 3e-4,1.8183 -1.35397,3.29265 -3.0249,3.29295 -1.671443,0 -3.026697,-1.473975 -3.026397,-3.29295 -3e-4,-1.818975 1.354954,-3.29355 3.026397,-3.29295 z m 22.70506,0.619575 1.38427,3.9024 -2.78317,0 z" />
</svg>